Rworkshop
…
# Row-wise calculation

8.Generate variables “MEM_1”, “MEM_2”, …, “MEM_9” which equals the mean of “BVRT” and “IST” at each time point.

--

* The original wide format data set has too many columns... Let's start with one babystep first:

```r
# this tibble is the "ingredient"
wide_paquid %>% select(contains(c("ID","BVRT","IST")))
```

```
## # A tibble: 500 x 19
##       ID BVRT_1 BVRT_2 BVRT_3 BVRT_4 BVRT_5 BVRT_6 BVRT_7 BVRT_8
##    <int>  <int>  <int>  <int>  <int>  <int>  <int>  <int>  <int>
##  1     1     10     NA     NA     NA     NA     NA     NA     NA
##  2     2     13     13     12     13      9     NA     NA     NA
##  3     3     13      6     NA     NA     NA     NA     NA     NA
##  4     4     NA      8     NA     NA     NA     NA     NA     NA
##  5     5     10     13     12     11     11      9     12     NA
##  6     6     12     14     11     10      9      8     NA     NA
##  7     7      5      2     NA     NA     NA     NA     NA     NA
##  8     8     11     11     12      8     10      9      8     NA
##  9     9     11     12     12     NA     NA     NA     NA     NA
## 10    10     12      8      8     NA     NA     NA     NA     NA
## # ... with 490 more rows, and 10 more variables: BVRT_9 <int>,
## #   IST_1 <int>, IST_2 <int>, IST_3 <int>, IST_4 <int>,
## #   IST_5 <int>, IST_6 <int>, IST_7 <int>, IST_8 <int>, IST_9 <int>
```
…
$$ MEM_1 = (BVRT_1+IST_1)/2 $$

--

```r
wide_paquid %>%
  select(contains(c("ID", "BVRT_1", "IST_1"))) %>%
  rowwise("ID") %>% # indicate the row index
  mutate(MEM_1 = mean(c(BVRT_1, IST_1))) %>% # mutate: create new column
  ungroup() # need to ungroup for rowwise calculation
```

```
## # A tibble: 500 x 4
##       ID BVRT_1 IST_1 MEM_1
##    <int>  <int> <int> <dbl>
*##  1     1     10    37  23.5
##  2     2     13    25  19  
##  3     3     13    28  20.5
##  4     4     NA    NA  NA  
##  5     5     10    34  22  
##  6     6     12    37  24.5
##  7     7      5    16  10.5
##  8     8     11    29  20  
##  9     9     11    25  18  
## 10    10     12    35  23.5
## # ... with 490 more rows
```
…
